{
  "project_info": {
    "project_number": "819183345110",
    "project_id": "e-prey",
    "storage_bucket": "e-prey.appspot.com"
  },
  "client": [
    {
      "client_info": {
        "mobilesdk_app_id": "1:819183345110:android:dd21309a139894cad45877",
        "android_client_info": {
          "package_name": "com.eprey.eprey.eprey"
        }
      },
      "oauth_client": [
        {
          "client_id": "819183345110-uhlbrpc6vd9cumlk9cv8vj025ikou6g8.apps.googleusercontent.com",
          "client_type": 3
        }
      ],
      "api_key": [
        {
          "current_key": "AIzaSyBwEjkrEuc0hsEKKKScABzyl5vOOx6drJo"
        }
      ],
      "services": {
        "appinvite_service": {
          "other_platform_oauth_client": [
            {
              "client_id": "819183345110-uhlbrpc6vd9cumlk9cv8vj025ikou6g8.apps.googleusercontent.com",
              "client_type": 3
            }
          ]
        }
      }
    }
  ],
  "configuration_version": "1"
}